<?xml version="1.0" encoding="UTF-8"?>
<svg width="512px" height="512px" viewBox="0 0 512 512" version="1.1" xmlns="http://www.w3.org/2000/svg" xmlns:xlink="http://www.w3.org/1999/xlink">
    <title>Icon@1x</title>
    <defs>
        <linearGradient x1="100%" y1="100%" x2="0%" y2="0%" id="linearGradient-1">
            <stop stop-color="#FFFFFF" offset="0%"></stop>
            <stop stop-color="#FFFFFF" offset="100%"></stop>
        </linearGradient>
    </defs>
    <g id="Icon" stroke="none" stroke-width="1" fill="none" fill-rule="evenodd">
        <rect id="Background" fill="url(#linearGradient-1)" x="0" y="0" width="512" height="512"></rect>
        <g id="Group" transform="translate(119.000000, 121.000000)">
            <path d="M210.6,-15 C224.093873,-15 236.323961,-9.58952608 245.239729,-0.820021118 C254.186234,7.97971562 259.793449,20.1623221 259.99445,33.6541538 L259.99445,33.6541538 L259.999983,34.3371396 C260.008362,49.8094924 256.923238,65.0478838 250.931815,79.2275855 L250.931815,79.2275855 L231.491486,125.236364 L195.829287,125.236364 L164.55656,99.4363636 L112.310557,99.4363636 L77.128739,125.236364 L43.5085139,125.236364 L24.0681851,79.2275855 C18.0835212,65.063881 15,49.8438378 15,34.4676638 C15,20.7942072 20.5261305,8.43775517 29.4510859,-0.504755294 C38.3934054,-9.46466412 50.7501964,-15 64.4,-15 L64.4,-15 Z" id="Path-2" stroke="#474747" stroke-width="30"></path>
            <path d="M137.5,65 C213.439153,65 275,126.560847 275,202.5 C275,240.609345 259.496275,275.097601 234.452014,300.00158 L40.5479865,300.00158 C15.5037249,275.097601 0,240.609345 0,202.5 C0,126.560847 61.5608469,65 137.5,65 Z" id="Combined-Shape" fill="#474747"></path>
            <path d="M137.5,95 C196.870611,95 245,143.129389 245,202.5 C245,232.294858 232.878679,259.25863 213.298296,278.729055 L61.701704,278.729055 C42.1213214,259.25863 30,232.294858 30,202.5 C30,143.129389 78.1293894,95 137.5,95 Z" id="Combined-Shape" fill="#FFFFFF"></path>
            <rect id="Rectangle" fill="#474747" x="41" y="270" width="192" height="10"></rect>
            <rect id="Rectangle" fill="#474747" x="161" y="230" width="60" height="20" rx="10"></rect>
            <circle id="Oval" fill="#474747" cx="139" cy="240" r="10"></circle>
        </g>
    </g>
</svg>