<?xml version="1.0" encoding="UTF-8"?>
<svg width="512px" height="512px" viewBox="0 0 512 512" version="1.1" xmlns="http://www.w3.org/2000/svg" xmlns:xlink="http://www.w3.org/1999/xlink">
    <!-- Generator: Sketch 54.1 (76490) - https://sketchapp.com -->
    <title>App Store iOS</title>
    <desc>Created with Sketch.</desc>
    <defs>
        <linearGradient x1="50%" y1="100%" x2="50%" y2="0%" id="linearGradient-1">
            <stop stop-color="#1D6FF2" offset="0%"></stop>
            <stop stop-color="#1AC8FC" offset="100%"></stop>
        </linearGradient>
        <linearGradient x1="50%" y1="0%" x2="50%" y2="97.9307432%" id="linearGradient-2">
            <stop stop-color="#FF5959" offset="0%"></stop>
            <stop stop-color="#FFC970" offset="100%"></stop>
        </linearGradient>
    </defs>
    <g id="App-Store-iOS" stroke="none" stroke-width="1" fill="none" fill-rule="evenodd">
        <g id="Icon-Template-512-pt">
            <g id="Template">
                <rect id="BG" fill="url(#linearGradient-1)" x="0" y="0" width="512" height="512"></rect>
                <path d="M305.275071,341.083333 C306.987341,337.014313 307.880982,332.626901 307.880982,328.114002 C307.880982,309.632344 292.898638,294.65 274.41698,294.65 L208.104777,294.65 L304.86582,127.054958 C311.276925,115.950598 307.47229,101.751507 296.36793,95.3404016 C285.263569,88.9292961 271.064479,92.733931 264.653373,103.838291 L255.928301,118.95056 L245.886951,101.558432 C239.86181,91.122582 226.51754,87.5469957 216.08169,93.5721366 C205.64584,99.5972776 202.070254,112.941548 208.095395,123.377398 L230.73393,162.588491 L154.488182,294.65 L96,294.65 C83.1777891,294.65 72.7833333,305.044456 72.7833333,317.866667 C72.7833333,330.688878 83.1777891,341.083333 96,341.083333 L305.275071,341.083333 Z M291.985331,179.998002 C272.910007,200.428821 269.155246,231.198412 283.358642,255.799416 C285.868597,260.146785 289.210672,266.469541 297.452387,282.333888 L368.011691,404.546186 C374.422796,415.650547 388.621887,419.455181 399.726247,413.044076 C410.830607,406.632971 414.635242,392.43388 408.224137,381.32952 L384.98799,341.083333 L416,341.083333 C428.822211,341.083333 439.216667,330.688878 439.216667,317.866667 C439.216667,305.044456 428.822211,294.65 416,294.65 L358.179693,294.65 L291.985331,179.998002 Z M167.594764,364.8154 C161.267116,354.539846 150.072552,348.144727 137.774223,348.144727 C132.004563,348.144727 126.418807,349.48262 121.367442,352.016805 L104.653373,380.966421 C98.2422679,392.070781 102.046903,406.269872 113.151263,412.680977 C124.255624,419.092083 138.454714,415.287448 144.86582,404.183087 L167.594764,364.8154 Z" id="Combined-Shape" stroke="#FFFFFF" stroke-width="0.5"></path>
            </g>
            <g id="Your-App-Icon">
                <rect id="Rectangle" stroke="#979797" fill="#D8D8D8" x="1.5" y="0.5" width="509" height="510"></rect>
                <polygon id="Rectangle-2" fill="url(#linearGradient-2)" points="512 1 512 512 1 512"></polygon>
                <polygon id="Rectangle-2" fill="#F5F5F5" transform="translate(256.500000, 255.500000) scale(-1, -1) translate(-256.500000, -255.500000) " points="512 0 512 511 1 511"></polygon>
                <g id="Rectangle-2-Copy" transform="translate(144.000000, 75.000000)">
                    <g id="Mask" transform="translate(0.000000, 0.497411)" fill="#B93E11" fill-rule="nonzero">
                        <path d="M145.557912,67.2719298 C164.104779,67.2719298 179.152238,52.2058206 179.152238,33.6359649 C179.152238,15.0661093 164.104779,0 145.557912,0 C127.011045,0 111.963587,15.0661093 111.963587,33.6359649 C111.963587,52.2058206 127.011045,67.2719298 145.557912,67.2719298 Z M211.69674,171.753646 L195.389495,163.484805 L188.600642,142.882776 C178.312379,111.629359 149.617227,89.7659814 117.072724,89.6959065 C91.8769801,89.6258315 77.9493328,96.7734741 51.7737544,107.354788 C36.656308,113.451307 24.2684006,125.01367 16.9896301,139.729404 L12.3004222,149.259594 C6.84134436,160.331433 11.2505995,173.785819 22.2387434,179.321738 C33.1568991,184.857657 46.4546529,180.372862 51.9837189,169.301023 L56.6729268,159.770833 C59.122513,154.865588 63.1818273,151.011468 68.2209761,148.979295 L86.9778077,141.411203 L76.3396047,183.946683 C72.7002195,198.522268 76.6195574,214.008827 86.7678432,225.15074 L128.690762,270.979742 C133.72991,276.515662 137.299307,283.17278 139.119,290.390497 L151.926837,341.755419 C154.936328,353.738231 167.114271,361.096098 179.082249,358.082877 C191.050228,355.069655 198.398986,342.876617 195.389495,330.893805 L179.852119,268.52712 C178.032427,261.309402 174.46303,254.58221 169.423881,249.116365 L137.57926,214.289127 L149.617227,166.147652 L153.466576,177.710015 C157.17595,188.992078 165.154602,198.312043 175.652829,203.637738 L191.960074,211.906579 C202.87823,217.442498 216.175984,212.957703 221.70505,201.885864 C227.094139,190.884101 222.684884,177.289565 211.69674,171.753646 L211.69674,171.753646 Z M51.4938017,270.349068 C49.25418,276.025137 45.8947475,281.140607 41.5554804,285.415177 L6.56139165,320.522716 C-2.18713055,329.282082 -2.18713055,343.507292 6.56139165,352.266658 C15.3099138,361.026023 29.4475257,361.026023 38.1960479,352.266658 L79.7690254,310.642151 C84.0383042,306.367581 87.3977368,301.252111 89.7073466,295.576042 L99.1557506,271.890716 C60.4522884,229.635536 72.0703259,242.599397 65.9813544,234.260481 L51.4938017,270.349068 L51.4938017,270.349068 Z" id="Shape"></path>
                    </g>
                    <polygon fill="#FF7441" transform="translate(112.248889, 180.164937) scale(-1, -1) translate(-112.248889, -180.164937) " points="367.36 -75.2559215 367.36 435.585796 -142.862222 435.585796"></polygon>
                </g>
            </g>
        </g>
    </g>
</svg>